1 2614,6
2 2664,9
3 2653,3
4 2644,6
5 2688,6
6 2668,7
7 2699,1
8 2629,7
9 2609,3
10 2615,9
11 2657,9
12 2631,2
13 2641,4
14 2625,2
15 2646,8
16 2628,6
17 2611,8
18 2649,7
19 2680,1
20 2618,1
21 2662,1
22 2653,1
23 2696,0
24 2649,3
25 2648,8
26 2652,9
27 2642,9
28 2718,0
29 2631,4
30 2599,8
31 2602,3
32 2640,6
33 2661,3
34 2649,4
35 2678,4
36 2644,3
37 2654,1
38 2646,4
39 2682,8
40 2688,8
41 2615,6
42 2627,3
43 2646,8
44 2643,8
45 2651,6
46 2636,1
47 2709,1
48 2686,5
49 2622,0
50 2737,4
51 2665,0
52 2624,3
53 2678,5
54 2653,3
55 2601,1
56 2664,3
57 2650,3
58 2635,8
59 2651,0
60 2614,4
61 2639,9
62 2634,6
63 2610,1
64 2648,9
65 2672,4
66 2633,8
67 2666,2
68 2653,2
69 2627,1
70 2647,3
71 2692,3
72 2606,1
73 2626,0
74 2643,1
75 2675,0
76 2623,6
77 2624,1
78 2648,9
79 2626,9
80 2624,3
81 2637,4
82 2637,4
83 2666,5
84 2581,4
85 2675,1
86 2662,3
87 2630,6
88 2632,1
89 2637,5
90 2619,3
91 2611,1
92 2679,7
93 2623,9
94 2619,9
95 2681,4
96 2695,2
97 2628,0
98 2636,8
99 2631,0
100 2631,6
101 2640,9
102 2713,8
103 2628,0
104 2669,0
105 2613,8
106 2660,4
107 2699,2
108 2644,1
109 2692,8
110 2658,2
111 2616,8
112 2616,8
113 2689,4
114 2679,5
115 2594,4
116 2668,1
117 2690,0
118 2663,2
119 2651,7
120 2721,6
121 2658,2
122 2635,2
123 2630,7
124 2677,7
125 2632,4
126 2690,9
127 2626,9
128 2629,0
129 2630,1
130 2621,5
131 2647,6
132 2608,4
133 2582,0
134 2684,8
135 2604,1
136 2699,9
137 2667,3
138 2643,1
139 2616,7
140 2625,5
141 2672,3
142 2618,5
143 2653,6
144 2630,5
145 2605,3
146 2622,1
147 2609,3
148 2651,1
149 2632,4
150 2659,5
151 2638,8
152 2591,6
153 2670,1
154 2665,0
155 2622,4
156 2660,4
157 2587,5
158 2664,0
159 2639,8
160 2666,9
161 2630,5
162 2618,7
163 2625,1
164 2651,7
165 2621,3
166 2699,6
167 2630,7
168 2660,2
169 2651,0
170 2662,8
171 2614,9
172 2604,6
173 2630,5
174 2594,9
175 2695,2
176 2561,5
177 2634,1
178 2638,8
179 2650,8
180 2637,8
181 2682,2
182 2608,6
183 2615,2
184 2621,2
185 2610,4
186 2638,4
187 2663,6
188 2681,5
189 2649,9
190 2673,7
191 2655,7
192 2610,3
193 2694,6
194 2639,8
195 2675,3
196 2647,5
197 2623,3
198 2642,1
199 2675,3
200 2725,6
